<svg xmlns="http://www.w3.org/2000/svg" viewBox="0 0 800 300" preserveAspectRatio="xMinYMin meet">
  <defs>
    <symbol id="symb_led1" viewBox="0 0 100 100" preserveAspectRatio="xMidYMid meet">
      <title>A round LED</title>
      <desc>This symbol represents a LED</desc>
      <circle cx="50" cy="50" r="20"/>
    </symbol>
    <symbol id="symb_led2" viewBox="0 0 100 100" preserveAspectRatio="xMidYMid meet">
      <title>A square LED</title>
      <desc>This symbol represents a LED</desc>
      <rect x="0" y="0" width="100" height="100" style="stroke: black; fill: cyan"/>
      <rect x="25" y="25" width="50" height="50"/>
    </symbol>
    <symbol id="symb_led3" viewBox="0 0 60 100" preserveAspectRatio="xMidYMid meet">
      <title>A rectangle LED</title>
      <desc>This symbol represents a LED</desc>
      <rect x="0" y="0" width="60" height="100" style="stroke: black; fill: cyan"/>
      <rect x="20" y="20" width="20" height="60"/>
    </symbol>
  </defs>
  <use href="#symb_led1" id="test_led1" width="50" height="50"/>
</svg>
