<svg xmlns="http://www.w3.org/2000/svg" viewBox="0 0 800 300" preserveAspectRatio="xMinYMin meet">
  <defs>
    <symbol id="symb_valve2" viewBox="0 0 200 200" preserveAspectRatio="xMidYMid meet">
      <desc>This symbol represents a valve</desc>
      <path d="m 50,50 0,50 100,-50 0,50 z"/>
      <circle cx="100" cy="75" r="20" style="stroke:#ff0000; fill: #ffff00"/>
      <path d="m 100,55 0,-10"/>
      <path d="m 75,45 50,0 0,-10 -50,0 z"/>
    </symbol>

    <symbol id="symb_motor1" viewBox="0 0 200 200" preserveAspectRatio="xMidYMid meet">
      <rect x="10" y="10" height="50" width="50"/>
      <circle cx="35" cy="35" r="20" style="stroke:#ff0000; fill: #ffff00"/>
    </symbol>

    <symbol id="symb_pump" viewBox="0 0 120 120" preserveAspectRatio="xMidYMid meet">
      <desc>This symbol represents a pump</desc>
      <rect id="rect3336" width="100" height="100" x="10" y="10" rx="5" ry="5"/>
      <path
        style="stroke:#ff0000; fill: #ffff00"
        d="M 59.240622,19.802545 A 30.178307,30.304577 0 0 0 29.062887,50.107233 30.178307,30.304577 0 0 0 59.240622,80.411921 30.178307,30.304577 0 0 0 89.418356,50.107233 30.178307,30.304577 0 0 0 86.465231,37.101374 l 10.707031,0 c 4.588778,0 8.283198,-2.904236 8.283198,-6.513672 l 0,-2.375 c 0,-3.609437 -3.69442,-6.515625 -8.283198,-6.515625 l -27.537109,0 A 30.178307,30.304577 0 0 0 59.240622,19.802545 Z"
        id="path3357"/>
      <rect style="stroke:#ff0000; fill: #ffff00" id="rect3361" width="50.507626" height="15.404826" x="14.708128" y="42.02663" rx="8.2829962" ry="6.5152287"/>
      <rect style="stroke:#ff0000; fill: #ffff00" id="rect3359" width="85.105354" height="17.67767" x="16.435284" y="80.664963" rx="5" ry="5"/>
      <path style="stroke:#ff0000; fill: #ffff00" d="m 33.607878,80.664966 c 4.798224,-8.333759 4.798224,-8.333759 4.798224,-8.333759" id="path3385"/>
      <path style="stroke:#ff0000; fill: #ffff00" d="M 83.736696,80.791235 78.938477,72.962552" id="path3385-1"/>
    </symbol>
  </defs>
  <use href="#symb_valve2" id="test_valve" width="200" height="200"/>
</svg>
